EESchema Schematic File Version 2
LIBS:lasik-rescue
LIBS:power
LIBS:device
LIBS:switches
LIBS:relays
LIBS:transistors
LIBS:conn
LIBS:linear
LIBS:regul
LIBS:74xx
LIBS:cmos4000
LIBS:adc-dac
LIBS:memory
LIBS:xilinx
LIBS:microcontrollers
LIBS:dsp
LIBS:microchip
LIBS:analog_switches
LIBS:motorola
LIBS:texas
LIBS:intel
LIBS:audio
LIBS:interface
LIBS:digital-audio
LIBS:philips
LIBS:display
LIBS:cypress
LIBS:siliconi
LIBS:opto
LIBS:atmel
LIBS:contrib
LIBS:valves
LIBS:bluepill_breakouts
LIBS:lasik-cache
EELAYER 25 0
EELAYER END
$Descr A4 11693 8268
encoding utf-8
Sheet 32 41
Title ""
Date ""
Rev ""
Comp ""
Comment1 ""
Comment2 ""
Comment3 ""
Comment4 ""
$EndDescr
$Comp
L LM339 U3101
U 4 1 5AFCC907
P 5400 3150
AR Path="/5AFCE970/5AFFB716/5AFCF0A3/5B023866/5AFCC907" Ref="U3101"  Part="2" 
AR Path="/5AFCE970/5AFFB716/5AFCF0A3/5B023867/5AFCC907" Ref="U3101"  Part="3" 
AR Path="/5AFCE970/5AFFB716/5AFCF0A3/5B023868/5AFCC907" Ref="U3101"  Part="4" 
AR Path="/5AFCE970/5AFFB716/5AFD08C6/5B023866/5AFCC907" Ref="U3601"  Part="2" 
AR Path="/5AFCE970/5AFFB716/5AFD08C6/5B023867/5AFCC907" Ref="U3601"  Part="3" 
AR Path="/5AFCE970/5AFFB716/5AFD08C6/5B023868/5AFCC907" Ref="U3601"  Part="4" 
F 0 "U3601" H 5500 3350 50  0000 C CNN
F 1 "TS3704CDT" H 5600 2950 50  0000 C CNN
F 2 "Housings_SOIC:SOIC-14_3.9x8.7mm_Pitch1.27mm" H 5350 3250 50  0001 C CNN
F 3 "https://eu.mouser.com/datasheet/2/389/ts3704-957321.pdf" H 5450 3350 50  0001 C CNN
	4    5400 3150
	1    0    0    -1  
$EndComp
$Comp
L R_Small R3202
U 1 1 5B023861
P 5000 3150
AR Path="/5AFCE970/5AFFB716/5AFCF0A3/5B023866/5B023861" Ref="R3202"  Part="1" 
AR Path="/5AFCE970/5AFFB716/5AFCF0A3/5B023867/5B023861" Ref="R3302"  Part="1" 
AR Path="/5AFCE970/5AFFB716/5AFCF0A3/5B023868/5B023861" Ref="R3402"  Part="1" 
AR Path="/5AFCE970/5AFFB716/5AFD08C6/5B023866/5B023861" Ref="R3702"  Part="1" 
AR Path="/5AFCE970/5AFFB716/5AFD08C6/5B023867/5B023861" Ref="R3802"  Part="1" 
AR Path="/5AFCE970/5AFFB716/5AFD08C6/5B023868/5B023861" Ref="R3902"  Part="1" 
F 0 "R3902" H 5100 3200 50  0000 L CNN
F 1 "R_Small" H 5050 3300 50  0000 L CNN
F 2 "Resistors_SMD:R_0805_HandSoldering" H 5000 3150 50  0001 C CNN
F 3 "" H 5000 3150 50  0001 C CNN
	1    5000 3150
	-1   0    0    1   
$EndComp
$Comp
L R_Small R3204
U 1 1 5AFCC915
P 5550 2600
AR Path="/5AFCE970/5AFFB716/5AFCF0A3/5B023866/5AFCC915" Ref="R3204"  Part="1" 
AR Path="/5AFCE970/5AFFB716/5AFCF0A3/5B023867/5AFCC915" Ref="R3304"  Part="1" 
AR Path="/5AFCE970/5AFFB716/5AFCF0A3/5B023868/5AFCC915" Ref="R3404"  Part="1" 
AR Path="/5AFCE970/5AFFB716/5AFD08C6/5B023866/5AFCC915" Ref="R3704"  Part="1" 
AR Path="/5AFCE970/5AFFB716/5AFD08C6/5B023867/5AFCC915" Ref="R3804"  Part="1" 
AR Path="/5AFCE970/5AFFB716/5AFD08C6/5B023868/5AFCC915" Ref="R3904"  Part="1" 
F 0 "R3904" V 5650 2450 50  0000 L CNN
F 1 "R_Small" V 5650 2750 50  0000 L CNN
F 2 "Resistors_SMD:R_0805_HandSoldering" H 5550 2600 50  0001 C CNN
F 3 "" H 5550 2600 50  0001 C CNN
	1    5550 2600
	0    -1   -1   0   
$EndComp
$Comp
L C_Small C3201
U 1 1 5AFCC91C
P 4750 3050
AR Path="/5AFCE970/5AFFB716/5AFCF0A3/5B023866/5AFCC91C" Ref="C3201"  Part="1" 
AR Path="/5AFCE970/5AFFB716/5AFCF0A3/5B023867/5AFCC91C" Ref="C3301"  Part="1" 
AR Path="/5AFCE970/5AFFB716/5AFCF0A3/5B023868/5AFCC91C" Ref="C3401"  Part="1" 
AR Path="/5AFCE970/5AFFB716/5AFD08C6/5B023866/5AFCC91C" Ref="C3701"  Part="1" 
AR Path="/5AFCE970/5AFFB716/5AFD08C6/5B023867/5AFCC91C" Ref="C3801"  Part="1" 
AR Path="/5AFCE970/5AFFB716/5AFD08C6/5B023868/5AFCC91C" Ref="C3901"  Part="1" 
F 0 "C3901" V 4950 3050 50  0000 L CNN
F 1 "C_Small" V 4850 2850 50  0000 L CNN
F 2 "Resistors_SMD:R_0805_HandSoldering" H 4750 3050 50  0001 C CNN
F 3 "" H 4750 3050 50  0001 C CNN
	1    4750 3050
	0    -1   -1   0   
$EndComp
$Comp
L GNDPWR #PWR?
U 1 1 5AFCC923
P 5300 3750
AR Path="/5AFCE970/5AFFB716/5AFCF0A3/5B023866/5AFCC923" Ref="#PWR?"  Part="1" 
AR Path="/5AFCE970/5AFFB716/5AFCF0A3/5B023867/5AFCC923" Ref="#PWR?"  Part="1" 
AR Path="/5AFCE970/5AFFB716/5AFCF0A3/5B023868/5AFCC923" Ref="#PWR?"  Part="1" 
AR Path="/5AFCE970/5AFFB716/5AFD08C6/5B023866/5AFCC923" Ref="#PWR?"  Part="1" 
AR Path="/5AFCE970/5AFFB716/5AFD08C6/5B023867/5AFCC923" Ref="#PWR?"  Part="1" 
AR Path="/5AFCE970/5AFFB716/5AFD08C6/5B023868/5AFCC923" Ref="#PWR?"  Part="1" 
F 0 "#PWR?" H 5300 3550 50  0001 C CNN
F 1 "GNDPWR" H 5300 3620 50  0000 C CNN
F 2 "" H 5300 3700 50  0000 C CNN
F 3 "" H 5300 3700 50  0000 C CNN
	1    5300 3750
	1    0    0    -1  
$EndComp
$Comp
L R_Small R3203
U 1 1 5AFEEB9F
P 5150 3550
AR Path="/5AFCE970/5AFFB716/5AFCF0A3/5B023866/5AFEEB9F" Ref="R3203"  Part="1" 
AR Path="/5AFCE970/5AFFB716/5AFCF0A3/5B023867/5AFEEB9F" Ref="R3303"  Part="1" 
AR Path="/5AFCE970/5AFFB716/5AFCF0A3/5B023868/5AFEEB9F" Ref="R3403"  Part="1" 
AR Path="/5AFCE970/5AFFB716/5AFD08C6/5B023866/5AFEEB9F" Ref="R3703"  Part="1" 
AR Path="/5AFCE970/5AFFB716/5AFD08C6/5B023867/5AFEEB9F" Ref="R3803"  Part="1" 
AR Path="/5AFCE970/5AFFB716/5AFD08C6/5B023868/5AFEEB9F" Ref="R3903"  Part="1" 
F 0 "R3903" V 4950 3350 50  0000 L CNN
F 1 "R_Small" V 5050 3350 50  0000 L CNN
F 2 "Resistors_SMD:R_0805_HandSoldering" H 5150 3550 50  0001 C CNN
F 3 "" H 5150 3550 50  0001 C CNN
	1    5150 3550
	0    1    -1   0   
$EndComp
$Comp
L +3.3V #PWR?
U 1 1 5AFCC94C
P 5300 2800
AR Path="/5AFCE970/5AFFB716/5AFCF0A3/5B023866/5AFCC94C" Ref="#PWR?"  Part="1" 
AR Path="/5AFCE970/5AFFB716/5AFCF0A3/5B023867/5AFCC94C" Ref="#PWR?"  Part="1" 
AR Path="/5AFCE970/5AFFB716/5AFCF0A3/5B023868/5AFCC94C" Ref="#PWR?"  Part="1" 
AR Path="/5AFCE970/5AFFB716/5AFD08C6/5B023866/5AFCC94C" Ref="#PWR?"  Part="1" 
AR Path="/5AFCE970/5AFFB716/5AFD08C6/5B023867/5AFCC94C" Ref="#PWR?"  Part="1" 
AR Path="/5AFCE970/5AFFB716/5AFD08C6/5B023868/5AFCC94C" Ref="#PWR?"  Part="1" 
F 0 "#PWR?" H 5300 2650 50  0001 C CNN
F 1 "+3.3V" H 5300 2940 50  0000 C CNN
F 2 "" H 5300 2800 50  0000 C CNN
F 3 "" H 5300 2800 50  0000 C CNN
	1    5300 2800
	1    0    0    -1  
$EndComp
Text HLabel 4550 3050 0    60   Input ~ 0
amped_sense
Text HLabel 5900 3150 2    60   Input ~ 0
triggered_out
$Comp
L R_Small R3201
U 1 1 5AFF073D
P 4850 3550
AR Path="/5AFCE970/5AFFB716/5AFCF0A3/5B023866/5AFF073D" Ref="R3201"  Part="1" 
AR Path="/5AFCE970/5AFFB716/5AFCF0A3/5B023867/5AFF073D" Ref="R3301"  Part="1" 
AR Path="/5AFCE970/5AFFB716/5AFCF0A3/5B023868/5AFF073D" Ref="R3401"  Part="1" 
AR Path="/5AFCE970/5AFFB716/5AFD08C6/5B023866/5AFF073D" Ref="R3701"  Part="1" 
AR Path="/5AFCE970/5AFFB716/5AFD08C6/5B023867/5AFF073D" Ref="R3801"  Part="1" 
AR Path="/5AFCE970/5AFFB716/5AFD08C6/5B023868/5AFF073D" Ref="R3901"  Part="1" 
F 0 "R3901" V 4650 3250 50  0000 L CNN
F 1 "R_Small" V 4750 3250 50  0000 L CNN
F 2 "Resistors_SMD:R_0805_HandSoldering" H 4850 3550 50  0001 C CNN
F 3 "" H 4850 3550 50  0001 C CNN
	1    4850 3550
	0    1    -1   0   
$EndComp
$Comp
L +3.3V #PWR?
U 1 1 5AFF07B9
P 4700 3550
AR Path="/5AFCE970/5AFFB716/5AFCF0A3/5B023866/5AFF07B9" Ref="#PWR?"  Part="1" 
AR Path="/5AFCE970/5AFFB716/5AFCF0A3/5B023867/5AFF07B9" Ref="#PWR?"  Part="1" 
AR Path="/5AFCE970/5AFFB716/5AFCF0A3/5B023868/5AFF07B9" Ref="#PWR?"  Part="1" 
AR Path="/5AFCE970/5AFFB716/5AFD08C6/5B023866/5AFF07B9" Ref="#PWR?"  Part="1" 
AR Path="/5AFCE970/5AFFB716/5AFD08C6/5B023867/5AFF07B9" Ref="#PWR?"  Part="1" 
AR Path="/5AFCE970/5AFFB716/5AFD08C6/5B023868/5AFF07B9" Ref="#PWR?"  Part="1" 
F 0 "#PWR?" H 4700 3400 50  0001 C CNN
F 1 "+3.3V" H 4700 3690 50  0000 C CNN
F 2 "" H 4700 3550 50  0000 C CNN
F 3 "" H 4700 3550 50  0000 C CNN
	1    4700 3550
	1    0    0    -1  
$EndComp
Wire Wire Line
	5000 3250 5000 3550
Wire Wire Line
	4950 3550 5050 3550
Connection ~ 5000 3550
Wire Wire Line
	5100 3250 5000 3250
Wire Wire Line
	4850 3050 5100 3050
Connection ~ 5000 3050
Connection ~ 5000 3250
Wire Wire Line
	5450 2600 5000 2600
Wire Wire Line
	5700 2600 5650 2600
Wire Wire Line
	5300 2850 5300 2800
Wire Wire Line
	4550 3050 4650 3050
Wire Wire Line
	5700 3150 5900 3150
Connection ~ 5700 3150
Wire Wire Line
	5300 3450 5300 3750
Wire Wire Line
	5250 3550 5300 3550
Connection ~ 5300 3550
Wire Wire Line
	4700 3550 4750 3550
Wire Wire Line
	5000 2600 5000 3050
Wire Wire Line
	5700 2600 5700 3150
$EndSCHEMATC
