EESchema Schematic File Version 2
LIBS:lasik-rescue
LIBS:power
LIBS:device
LIBS:switches
LIBS:relays
LIBS:transistors
LIBS:conn
LIBS:linear
LIBS:regul
LIBS:74xx
LIBS:cmos4000
LIBS:adc-dac
LIBS:memory
LIBS:xilinx
LIBS:microcontrollers
LIBS:dsp
LIBS:microchip
LIBS:analog_switches
LIBS:motorola
LIBS:texas
LIBS:intel
LIBS:audio
LIBS:interface
LIBS:digital-audio
LIBS:philips
LIBS:display
LIBS:cypress
LIBS:siliconi
LIBS:opto
LIBS:atmel
LIBS:contrib
LIBS:valves
LIBS:stm32duino_boards
LIBS:bluepill_breakouts
LIBS:lasik-cache
EELAYER 25 0
EELAYER END
$Descr A4 11693 8268
encoding utf-8
Sheet 5 51
Title ""
Date ""
Rev ""
Comp ""
Comment1 ""
Comment2 ""
Comment3 ""
Comment4 ""
$EndDescr
$Comp
L R_Small R501
U 1 1 5AFAA11D
P 3600 4500
F 0 "R501" H 3750 4550 50  0000 L CNN
F 1 "R_Small" H 3630 4460 50  0000 L CNN
F 2 "Resistors_SMD:R_0805_HandSoldering" H 3600 4500 50  0001 C CNN
F 3 "" H 3600 4500 50  0001 C CNN
	1    3600 4500
	-1   0    0    1   
$EndComp
$Comp
L MCP6004 U301
U 3 1 5AFAA14A
P 4100 4550
F 0 "U301" H 4150 4750 50  0000 C CNN
F 1 "TBD" H 4200 4900 50  0000 C CNN
F 2 "SMD_Packages:SOIC-14_N" H 4050 4650 50  0001 C CNN
F 3 "" H 4150 4750 50  0000 C CNN
	3    4100 4550
	1    0    0    1   
$EndComp
$Comp
L +12V #PWR?
U 1 1 5AFAA151
P 4000 4900
F 0 "#PWR?" H 4000 4750 50  0001 C CNN
F 1 "+12V" H 4000 5040 50  0000 C CNN
F 2 "" H 4000 4900 50  0000 C CNN
F 3 "" H 4000 4900 50  0000 C CNN
	1    4000 4900
	-1   0    0    1   
$EndComp
$Comp
L GNDPWR #PWR?
U 1 1 5AFAA158
P 4000 4150
F 0 "#PWR?" H 4000 3950 50  0001 C CNN
F 1 "GNDPWR" H 4000 4020 50  0000 C CNN
F 2 "" H 4000 4100 50  0000 C CNN
F 3 "" H 4000 4100 50  0000 C CNN
	1    4000 4150
	-1   0    0    1   
$EndComp
$Comp
L C_Small C501
U 1 1 5AFAA168
P 4600 4500
F 0 "C501" H 4700 4500 50  0000 L CNN
F 1 "C_Small" H 4650 4600 50  0000 L CNN
F 2 "Resistors_SMD:R_0805_HandSoldering" H 4600 4500 50  0001 C CNN
F 3 "" H 4600 4500 50  0001 C CNN
	1    4600 4500
	1    0    0    -1  
$EndComp
$Comp
L +12V #PWR?
U 1 1 5AFAA16F
P 4600 4350
F 0 "#PWR?" H 4600 4200 50  0001 C CNN
F 1 "+12V" H 4600 4490 50  0000 C CNN
F 2 "" H 4600 4350 50  0000 C CNN
F 3 "" H 4600 4350 50  0000 C CNN
	1    4600 4350
	1    0    0    -1  
$EndComp
$Comp
L GNDPWR #PWR?
U 1 1 5AFAA175
P 4600 4650
F 0 "#PWR?" H 4600 4450 50  0001 C CNN
F 1 "GNDPWR" H 4600 4520 50  0000 C CNN
F 2 "" H 4600 4600 50  0000 C CNN
F 3 "" H 4600 4600 50  0000 C CNN
	1    4600 4650
	1    0    0    -1  
$EndComp
$Comp
L R_Small R502
U 1 1 5AFAA24F
P 3600 4800
F 0 "R502" H 3750 4850 50  0000 L CNN
F 1 "R_Small" H 3630 4760 50  0000 L CNN
F 2 "Resistors_SMD:R_0805_HandSoldering" H 3600 4800 50  0001 C CNN
F 3 "" H 3600 4800 50  0001 C CNN
	1    3600 4800
	-1   0    0    1   
$EndComp
$Comp
L R_Small R503
U 1 1 5AFAA307
P 4200 4200
F 0 "R503" V 4300 4100 50  0000 L CNN
F 1 "R_Small" V 4100 4100 50  0000 L CNN
F 2 "Resistors_SMD:R_0805_HandSoldering" H 4200 4200 50  0001 C CNN
F 3 "" H 4200 4200 50  0001 C CNN
	1    4200 4200
	0    1    1    0   
$EndComp
Text HLabel 4500 3950 2    60   Input ~ 0
sense_voltage
Wire Wire Line
	4000 4150 4000 4250
Wire Wire Line
	4600 4650 4600 4600
Wire Wire Line
	4600 4350 4600 4400
Wire Wire Line
	3750 3950 4500 3950
Wire Wire Line
	3750 3950 3750 4450
Wire Wire Line
	3750 4450 3800 4450
Wire Wire Line
	3800 4650 3600 4650
Wire Wire Line
	3600 4600 3600 4700
Connection ~ 3600 4650
Connection ~ 4400 3950
$Comp
L GNDPWR #PWR?
U 1 1 5AFAE726
P 3600 4950
F 0 "#PWR?" H 3600 4750 50  0001 C CNN
F 1 "GNDPWR" H 3600 4820 50  0000 C CNN
F 2 "" H 3600 4900 50  0000 C CNN
F 3 "" H 3600 4900 50  0000 C CNN
	1    3600 4950
	1    0    0    -1  
$EndComp
$Comp
L +12V #PWR?
U 1 1 5AFAE740
P 3600 4350
F 0 "#PWR?" H 3600 4200 50  0001 C CNN
F 1 "+12V" H 3600 4490 50  0000 C CNN
F 2 "" H 3600 4350 50  0000 C CNN
F 3 "" H 3600 4350 50  0000 C CNN
	1    3600 4350
	1    0    0    -1  
$EndComp
Wire Wire Line
	3600 4400 3600 4350
Wire Wire Line
	3600 4950 3600 4900
Wire Wire Line
	4000 4900 4000 4850
Wire Wire Line
	4100 4200 4000 4200
Connection ~ 4000 4200
Wire Wire Line
	4300 4200 4400 4200
Connection ~ 4400 4200
Wire Wire Line
	4400 4550 4400 3950
$EndSCHEMATC
