EESchema Schematic File Version 2
LIBS:lasik-rescue
LIBS:power
LIBS:device
LIBS:switches
LIBS:relays
LIBS:transistors
LIBS:conn
LIBS:linear
LIBS:regul
LIBS:74xx
LIBS:cmos4000
LIBS:adc-dac
LIBS:memory
LIBS:xilinx
LIBS:microcontrollers
LIBS:dsp
LIBS:microchip
LIBS:analog_switches
LIBS:motorola
LIBS:texas
LIBS:intel
LIBS:audio
LIBS:interface
LIBS:digital-audio
LIBS:philips
LIBS:display
LIBS:cypress
LIBS:siliconi
LIBS:opto
LIBS:atmel
LIBS:contrib
LIBS:valves
LIBS:stm32duino_boards
LIBS:bluepill_breakouts
LIBS:lasik-cache
EELAYER 25 0
EELAYER END
$Descr A4 11693 8268
encoding utf-8
Sheet 12 51
Title ""
Date ""
Rev ""
Comp ""
Comment1 ""
Comment2 ""
Comment3 ""
Comment4 ""
$EndDescr
$Comp
L BSS138-RESCUE-lasik Q1201
U 1 1 5AFB0FA2
P 2500 2500
F 0 "Q1201" H 2700 2575 50  0000 L CNN
F 1 "TBD" H 2700 2500 50  0000 L CNN
F 2 "TO_SOT_Packages_SMD:SOT-23" H 2700 2425 50  0001 L CIN
F 3 "" H 2500 2500 50  0001 L CNN
	1    2500 2500
	1    0    0    -1  
$EndComp
$Comp
L Laserdiode_1C2A LD1201
U 1 1 5AFB0FA9
P 2600 1950
F 0 "LD1201" H 2550 2125 50  0000 C CNN
F 1 "Laserdiode_1C2A" H 2550 1850 50  0000 C CNN
F 2 "Pin_Headers:Pin_Header_Straight_1x02" H 2500 1925 50  0001 C CNN
F 3 "" H 2630 1750 50  0001 C CNN
	1    2600 1950
	0    -1   -1   0   
$EndComp
Text HLabel 1900 2500 0    60   Input ~ 0
in_1
Text HLabel 1900 2800 0    60   Input ~ 0
in_2
Text HLabel 1900 3100 0    60   Input ~ 0
in_3
$Comp
L R_Small R1201
U 1 1 5AFB1414
P 2600 1600
F 0 "R1201" H 2630 1620 50  0000 L CNN
F 1 "R_Small" H 2630 1560 50  0000 L CNN
F 2 "Resistors_SMD:R_0805_HandSoldering" H 2600 1600 50  0001 C CNN
F 3 "" H 2600 1600 50  0001 C CNN
	1    2600 1600
	1    0    0    -1  
$EndComp
$Comp
L +12V #PWR?
U 1 1 5AFB1499
P 2600 1450
F 0 "#PWR?" H 2600 1300 50  0001 C CNN
F 1 "+12V" H 2600 1590 50  0000 C CNN
F 2 "" H 2600 1450 50  0000 C CNN
F 3 "" H 2600 1450 50  0000 C CNN
	1    2600 1450
	1    0    0    -1  
$EndComp
$Comp
L GNDPWR #PWR?
U 1 1 5AFB14B3
P 2600 2750
F 0 "#PWR?" H 2600 2550 50  0001 C CNN
F 1 "GNDPWR" H 2600 2620 50  0000 C CNN
F 2 "" H 2600 2700 50  0000 C CNN
F 3 "" H 2600 2700 50  0000 C CNN
	1    2600 2750
	1    0    0    -1  
$EndComp
Wire Wire Line
	2600 1450 2600 1500
Wire Wire Line
	2600 1700 2600 1750
Wire Wire Line
	2600 2700 2600 2750
Wire Wire Line
	2300 2500 1900 2500
Wire Wire Line
	1900 2800 2000 2800
Wire Wire Line
	2000 2800 2000 3000
Wire Wire Line
	2000 3000 3100 3000
Wire Wire Line
	3100 3000 3100 2500
Wire Wire Line
	1900 3100 3900 3100
Wire Wire Line
	3900 3100 3900 2500
Wire Wire Line
	2600 2250 2600 2300
$Comp
L BSS138-RESCUE-lasik Q1202
U 1 1 5AFCE566
P 3350 2500
F 0 "Q1202" H 3550 2575 50  0000 L CNN
F 1 "TBD" H 3550 2500 50  0000 L CNN
F 2 "TO_SOT_Packages_SMD:SOT-23" H 3550 2425 50  0001 L CIN
F 3 "" H 3350 2500 50  0001 L CNN
	1    3350 2500
	1    0    0    -1  
$EndComp
$Comp
L Laserdiode_1C2A LD1202
U 1 1 5AFCE56C
P 3450 1950
F 0 "LD1202" H 3400 2125 50  0000 C CNN
F 1 "Laserdiode_1C2A" H 3400 1850 50  0000 C CNN
F 2 "Pin_Headers:Pin_Header_Straight_1x02" H 3350 1925 50  0001 C CNN
F 3 "" H 3480 1750 50  0001 C CNN
	1    3450 1950
	0    -1   -1   0   
$EndComp
$Comp
L R_Small R1202
U 1 1 5AFCE572
P 3450 1600
F 0 "R1202" H 3480 1620 50  0000 L CNN
F 1 "R_Small" H 3480 1560 50  0000 L CNN
F 2 "Resistors_SMD:R_0805_HandSoldering" H 3450 1600 50  0001 C CNN
F 3 "" H 3450 1600 50  0001 C CNN
	1    3450 1600
	1    0    0    -1  
$EndComp
$Comp
L +12V #PWR?
U 1 1 5AFCE578
P 3450 1450
F 0 "#PWR?" H 3450 1300 50  0001 C CNN
F 1 "+12V" H 3450 1590 50  0000 C CNN
F 2 "" H 3450 1450 50  0000 C CNN
F 3 "" H 3450 1450 50  0000 C CNN
	1    3450 1450
	1    0    0    -1  
$EndComp
$Comp
L GNDPWR #PWR?
U 1 1 5AFCE57E
P 3450 2750
F 0 "#PWR?" H 3450 2550 50  0001 C CNN
F 1 "GNDPWR" H 3450 2620 50  0000 C CNN
F 2 "" H 3450 2700 50  0000 C CNN
F 3 "" H 3450 2700 50  0000 C CNN
	1    3450 2750
	1    0    0    -1  
$EndComp
Wire Wire Line
	3450 1450 3450 1500
Wire Wire Line
	3450 1700 3450 1750
Wire Wire Line
	3450 2700 3450 2750
Wire Wire Line
	3450 2250 3450 2300
$Comp
L BSS138-RESCUE-lasik Q1203
U 1 1 5AFCE5E7
P 4150 2500
F 0 "Q1203" H 4350 2575 50  0000 L CNN
F 1 "TBD" H 4350 2500 50  0000 L CNN
F 2 "TO_SOT_Packages_SMD:SOT-23" H 4350 2425 50  0001 L CIN
F 3 "" H 4150 2500 50  0001 L CNN
	1    4150 2500
	1    0    0    -1  
$EndComp
$Comp
L Laserdiode_1C2A LD1203
U 1 1 5AFCE5ED
P 4250 1950
F 0 "LD1203" H 4200 2125 50  0000 C CNN
F 1 "Laserdiode_1C2A" H 4200 1850 50  0000 C CNN
F 2 "Pin_Headers:Pin_Header_Straight_1x02" H 4150 1925 50  0001 C CNN
F 3 "" H 4280 1750 50  0001 C CNN
	1    4250 1950
	0    -1   -1   0   
$EndComp
$Comp
L R_Small R1203
U 1 1 5AFCE5F3
P 4250 1600
F 0 "R1203" H 4280 1620 50  0000 L CNN
F 1 "R_Small" H 4280 1560 50  0000 L CNN
F 2 "Resistors_SMD:R_0805_HandSoldering" H 4250 1600 50  0001 C CNN
F 3 "" H 4250 1600 50  0001 C CNN
	1    4250 1600
	1    0    0    -1  
$EndComp
$Comp
L +12V #PWR?
U 1 1 5AFCE5F9
P 4250 1450
F 0 "#PWR?" H 4250 1300 50  0001 C CNN
F 1 "+12V" H 4250 1590 50  0000 C CNN
F 2 "" H 4250 1450 50  0000 C CNN
F 3 "" H 4250 1450 50  0000 C CNN
	1    4250 1450
	1    0    0    -1  
$EndComp
$Comp
L GNDPWR #PWR?
U 1 1 5AFCE5FF
P 4250 2750
F 0 "#PWR?" H 4250 2550 50  0001 C CNN
F 1 "GNDPWR" H 4250 2620 50  0000 C CNN
F 2 "" H 4250 2700 50  0000 C CNN
F 3 "" H 4250 2700 50  0000 C CNN
	1    4250 2750
	1    0    0    -1  
$EndComp
Wire Wire Line
	4250 1450 4250 1500
Wire Wire Line
	4250 1700 4250 1750
Wire Wire Line
	4250 2700 4250 2750
Wire Wire Line
	4250 2250 4250 2300
Wire Wire Line
	3900 2500 3950 2500
Wire Wire Line
	3100 2500 3150 2500
$EndSCHEMATC
