EESchema Schematic File Version 4
LIBS:lasik-cache
EELAYER 26 0
EELAYER END
$Descr A4 11693 8268
encoding utf-8
Sheet 26 41
Title ""
Date ""
Rev ""
Comp ""
Comment1 ""
Comment2 ""
Comment3 ""
Comment4 ""
$EndDescr
$Comp
L lasik-rescue:LM339 U2601
U 1 1 5B023860
P 5400 3150
AR Path="/5AFCE970/5AFFB716/5AFCC2D5/5AFCC6B4/5B023860" Ref="U2601"  Part="1" 
AR Path="/5AFCE970/5AFFB716/5AFCC2D5/5B02EE25/5B023860" Ref="U2601"  Part="2" 
AR Path="/5AFCE970/5AFFB716/5AFCC2D5/5B02EE26/5B023860" Ref="U2601"  Part="3" 
AR Path="/5AFCE970/5AFFB716/5AFCC2D5/5B02EE27/5B023860" Ref="U2601"  Part="4" 
AR Path="/5AFCE970/5AFFB716/5AFCF0A3/5AFCC6B4/5B023860" Ref="U3101"  Part="1" 
AR Path="/5AFCE970/5AFFB716/5AFCF0A3/5B02EE25/5B023860" Ref="U3101"  Part="2" 
AR Path="/5AFCE970/5AFFB716/5AFCF0A3/5B02EE26/5B023860" Ref="U3101"  Part="3" 
AR Path="/5AFCE970/5AFFB716/5AFCF0A3/5B02EE27/5B023860" Ref="U3101"  Part="4" 
AR Path="/5AFCE970/5AFFB716/5AFD08C6/5B02385F/5B023860" Ref="U3601"  Part="1" 
AR Path="/5AFCE970/5AFFB716/5AFD08C6/5AFCD50F/5B023860" Ref="U3601"  Part="3" 
AR Path="/5AFCE970/5AFFB716/5AFD08C6/5AFCD579/5B023860" Ref="U3601"  Part="4" 
F 0 "U2601" H 5500 3350 50  0000 C CNN
F 1 "TS3704CDT" H 5600 2950 50  0000 C CNN
F 2 "Housings_SOIC:SOIC-14_3.9x8.7mm_Pitch1.27mm" H 5350 3250 50  0001 C CNN
F 3 "https://eu.mouser.com/datasheet/2/389/ts3704-957321.pdf" H 5450 3350 50  0001 C CNN
	1    5400 3150
	1    0    0    -1  
$EndComp
$Comp
L lasik-rescue:R_Small R2602
U 1 1 5AFCC90E
P 5000 3150
AR Path="/5AFCE970/5AFFB716/5AFCC2D5/5AFCC6B4/5AFCC90E" Ref="R2602"  Part="1" 
AR Path="/5AFCE970/5AFFB716/5AFCC2D5/5B02EE25/5AFCC90E" Ref="R2702"  Part="1" 
AR Path="/5AFCE970/5AFFB716/5AFCC2D5/5B02EE26/5AFCC90E" Ref="R2802"  Part="1" 
AR Path="/5AFCE970/5AFFB716/5AFCC2D5/5B02EE27/5AFCC90E" Ref="R2902"  Part="1" 
AR Path="/5AFCE970/5AFFB716/5AFCF0A3/5AFCC6B4/5AFCC90E" Ref="R3102"  Part="1" 
AR Path="/5AFCE970/5AFFB716/5AFCF0A3/5B02EE25/5AFCC90E" Ref="R3202"  Part="1" 
AR Path="/5AFCE970/5AFFB716/5AFCF0A3/5B02EE26/5AFCC90E" Ref="R3302"  Part="1" 
AR Path="/5AFCE970/5AFFB716/5AFCF0A3/5B02EE27/5AFCC90E" Ref="R3402"  Part="1" 
AR Path="/5AFCE970/5AFFB716/5AFD08C6/5B02385F/5AFCC90E" Ref="R3602"  Part="1" 
AR Path="/5AFCE970/5AFFB716/5AFD08C6/5AFCD50F/5AFCC90E" Ref="R3802"  Part="1" 
AR Path="/5AFCE970/5AFFB716/5AFD08C6/5AFCD579/5AFCC90E" Ref="R3902"  Part="1" 
F 0 "R2602" H 5100 3200 50  0000 L CNN
F 1 "4.7k" H 5050 3300 50  0000 L CNN
F 2 "Resistors_SMD:R_0805_HandSoldering" H 5000 3150 50  0001 C CNN
F 3 "" H 5000 3150 50  0001 C CNN
	1    5000 3150
	-1   0    0    1   
$EndComp
$Comp
L lasik-rescue:R_Small R2604
U 1 1 5B023862
P 5550 2600
AR Path="/5AFCE970/5AFFB716/5AFCC2D5/5AFCC6B4/5B023862" Ref="R2604"  Part="1" 
AR Path="/5AFCE970/5AFFB716/5AFCC2D5/5B02EE25/5B023862" Ref="R2704"  Part="1" 
AR Path="/5AFCE970/5AFFB716/5AFCC2D5/5B02EE26/5B023862" Ref="R2804"  Part="1" 
AR Path="/5AFCE970/5AFFB716/5AFCC2D5/5B02EE27/5B023862" Ref="R2904"  Part="1" 
AR Path="/5AFCE970/5AFFB716/5AFCF0A3/5AFCC6B4/5B023862" Ref="R3104"  Part="1" 
AR Path="/5AFCE970/5AFFB716/5AFCF0A3/5B02EE25/5B023862" Ref="R3204"  Part="1" 
AR Path="/5AFCE970/5AFFB716/5AFCF0A3/5B02EE26/5B023862" Ref="R3304"  Part="1" 
AR Path="/5AFCE970/5AFFB716/5AFCF0A3/5B02EE27/5B023862" Ref="R3404"  Part="1" 
AR Path="/5AFCE970/5AFFB716/5AFD08C6/5B02385F/5B023862" Ref="R3604"  Part="1" 
AR Path="/5AFCE970/5AFFB716/5AFD08C6/5AFCD50F/5B023862" Ref="R3804"  Part="1" 
AR Path="/5AFCE970/5AFFB716/5AFD08C6/5AFCD579/5B023862" Ref="R3904"  Part="1" 
F 0 "R2604" V 5650 2450 50  0000 L CNN
F 1 "470k" V 5650 2750 50  0000 L CNN
F 2 "Resistors_SMD:R_0805_HandSoldering" H 5550 2600 50  0001 C CNN
F 3 "" H 5550 2600 50  0001 C CNN
	1    5550 2600
	0    -1   -1   0   
$EndComp
$Comp
L lasik-rescue:GNDPWR #PWR?
U 1 1 5B023864
P 5300 3750
AR Path="/5AFCE970/5AFFB716/5AFCC2D5/5AFCC6B4/5B023864" Ref="#PWR?"  Part="1" 
AR Path="/5AFCE970/5AFFB716/5AFCC2D5/5B02EE25/5B023864" Ref="#PWR?"  Part="1" 
AR Path="/5AFCE970/5AFFB716/5AFCC2D5/5B02EE26/5B023864" Ref="#PWR?"  Part="1" 
AR Path="/5AFCE970/5AFFB716/5AFCC2D5/5B02EE27/5B023864" Ref="#PWR?"  Part="1" 
AR Path="/5AFCE970/5AFFB716/5AFCF0A3/5AFCC6B4/5B023864" Ref="#PWR?"  Part="1" 
AR Path="/5AFCE970/5AFFB716/5AFCF0A3/5B02EE25/5B023864" Ref="#PWR?"  Part="1" 
AR Path="/5AFCE970/5AFFB716/5AFCF0A3/5B02EE26/5B023864" Ref="#PWR?"  Part="1" 
AR Path="/5AFCE970/5AFFB716/5AFCF0A3/5B02EE27/5B023864" Ref="#PWR?"  Part="1" 
AR Path="/5AFCE970/5AFFB716/5AFD08C6/5B02385F/5B023864" Ref="#PWR?"  Part="1" 
AR Path="/5AFCE970/5AFFB716/5AFD08C6/5AFCD50F/5B023864" Ref="#PWR?"  Part="1" 
AR Path="/5AFCE970/5AFFB716/5AFD08C6/5AFCD579/5B023864" Ref="#PWR?"  Part="1" 
F 0 "#PWR?" H 5300 3550 50  0001 C CNN
F 1 "GNDPWR" H 5300 3620 50  0000 C CNN
F 2 "" H 5300 3700 50  0000 C CNN
F 3 "" H 5300 3700 50  0000 C CNN
	1    5300 3750
	1    0    0    -1  
$EndComp
$Comp
L lasik-rescue:R_Small R2603
U 1 1 5B023869
P 5150 3550
AR Path="/5AFCE970/5AFFB716/5AFCC2D5/5AFCC6B4/5B023869" Ref="R2603"  Part="1" 
AR Path="/5AFCE970/5AFFB716/5AFCC2D5/5B02EE25/5B023869" Ref="R2703"  Part="1" 
AR Path="/5AFCE970/5AFFB716/5AFCC2D5/5B02EE26/5B023869" Ref="R2803"  Part="1" 
AR Path="/5AFCE970/5AFFB716/5AFCC2D5/5B02EE27/5B023869" Ref="R2903"  Part="1" 
AR Path="/5AFCE970/5AFFB716/5AFCF0A3/5AFCC6B4/5B023869" Ref="R3103"  Part="1" 
AR Path="/5AFCE970/5AFFB716/5AFCF0A3/5B02EE25/5B023869" Ref="R3203"  Part="1" 
AR Path="/5AFCE970/5AFFB716/5AFCF0A3/5B02EE26/5B023869" Ref="R3303"  Part="1" 
AR Path="/5AFCE970/5AFFB716/5AFCF0A3/5B02EE27/5B023869" Ref="R3403"  Part="1" 
AR Path="/5AFCE970/5AFFB716/5AFD08C6/5B02385F/5B023869" Ref="R3603"  Part="1" 
AR Path="/5AFCE970/5AFFB716/5AFD08C6/5AFCD50F/5B023869" Ref="R3803"  Part="1" 
AR Path="/5AFCE970/5AFFB716/5AFD08C6/5AFCD579/5B023869" Ref="R3903"  Part="1" 
F 0 "R2603" V 4950 3350 50  0000 L CNN
F 1 "10k" V 5050 3350 50  0000 L CNN
F 2 "Resistors_SMD:R_0805_HandSoldering" H 5150 3550 50  0001 C CNN
F 3 "" H 5150 3550 50  0001 C CNN
	1    5150 3550
	0    1    -1   0   
$EndComp
$Comp
L power:+3.3V #PWR?
U 1 1 5B023865
P 5300 2800
AR Path="/5AFCE970/5AFFB716/5AFCC2D5/5AFCC6B4/5B023865" Ref="#PWR?"  Part="1" 
AR Path="/5AFCE970/5AFFB716/5AFCC2D5/5B02EE25/5B023865" Ref="#PWR?"  Part="1" 
AR Path="/5AFCE970/5AFFB716/5AFCC2D5/5B02EE26/5B023865" Ref="#PWR?"  Part="1" 
AR Path="/5AFCE970/5AFFB716/5AFCC2D5/5B02EE27/5B023865" Ref="#PWR?"  Part="1" 
AR Path="/5AFCE970/5AFFB716/5AFCF0A3/5AFCC6B4/5B023865" Ref="#PWR?"  Part="1" 
AR Path="/5AFCE970/5AFFB716/5AFCF0A3/5B02EE25/5B023865" Ref="#PWR?"  Part="1" 
AR Path="/5AFCE970/5AFFB716/5AFCF0A3/5B02EE26/5B023865" Ref="#PWR?"  Part="1" 
AR Path="/5AFCE970/5AFFB716/5AFCF0A3/5B02EE27/5B023865" Ref="#PWR?"  Part="1" 
AR Path="/5AFCE970/5AFFB716/5AFD08C6/5B02385F/5B023865" Ref="#PWR?"  Part="1" 
AR Path="/5AFCE970/5AFFB716/5AFD08C6/5AFCD50F/5B023865" Ref="#PWR?"  Part="1" 
AR Path="/5AFCE970/5AFFB716/5AFD08C6/5AFCD579/5B023865" Ref="#PWR?"  Part="1" 
F 0 "#PWR?" H 5300 2650 50  0001 C CNN
F 1 "+3.3V" H 5300 2940 50  0000 C CNN
F 2 "" H 5300 2800 50  0000 C CNN
F 3 "" H 5300 2800 50  0000 C CNN
	1    5300 2800
	1    0    0    -1  
$EndComp
Text HLabel 4800 3050 0    60   Input ~ 0
amped_sense
Text HLabel 5900 3150 2    60   Input ~ 0
triggered_out
$Comp
L lasik-rescue:R_Small R2601
U 1 1 5B02386A
P 4850 3550
AR Path="/5AFCE970/5AFFB716/5AFCC2D5/5AFCC6B4/5B02386A" Ref="R2601"  Part="1" 
AR Path="/5AFCE970/5AFFB716/5AFCC2D5/5B02EE25/5B02386A" Ref="R2701"  Part="1" 
AR Path="/5AFCE970/5AFFB716/5AFCC2D5/5B02EE26/5B02386A" Ref="R2801"  Part="1" 
AR Path="/5AFCE970/5AFFB716/5AFCC2D5/5B02EE27/5B02386A" Ref="R2901"  Part="1" 
AR Path="/5AFCE970/5AFFB716/5AFCF0A3/5AFCC6B4/5B02386A" Ref="R3101"  Part="1" 
AR Path="/5AFCE970/5AFFB716/5AFCF0A3/5B02EE25/5B02386A" Ref="R3201"  Part="1" 
AR Path="/5AFCE970/5AFFB716/5AFCF0A3/5B02EE26/5B02386A" Ref="R3301"  Part="1" 
AR Path="/5AFCE970/5AFFB716/5AFCF0A3/5B02EE27/5B02386A" Ref="R3401"  Part="1" 
AR Path="/5AFCE970/5AFFB716/5AFD08C6/5B02385F/5B02386A" Ref="R3601"  Part="1" 
AR Path="/5AFCE970/5AFFB716/5AFD08C6/5AFCD50F/5B02386A" Ref="R3801"  Part="1" 
AR Path="/5AFCE970/5AFFB716/5AFD08C6/5AFCD579/5B02386A" Ref="R3901"  Part="1" 
F 0 "R2601" V 4650 3250 50  0000 L CNN
F 1 "10k" V 4750 3250 50  0000 L CNN
F 2 "Resistors_SMD:R_0805_HandSoldering" H 4850 3550 50  0001 C CNN
F 3 "" H 4850 3550 50  0001 C CNN
	1    4850 3550
	0    1    -1   0   
$EndComp
$Comp
L power:+3.3V #PWR?
U 1 1 5B02386B
P 4700 3550
AR Path="/5AFCE970/5AFFB716/5AFCC2D5/5AFCC6B4/5B02386B" Ref="#PWR?"  Part="1" 
AR Path="/5AFCE970/5AFFB716/5AFCC2D5/5B02EE25/5B02386B" Ref="#PWR?"  Part="1" 
AR Path="/5AFCE970/5AFFB716/5AFCC2D5/5B02EE26/5B02386B" Ref="#PWR?"  Part="1" 
AR Path="/5AFCE970/5AFFB716/5AFCC2D5/5B02EE27/5B02386B" Ref="#PWR?"  Part="1" 
AR Path="/5AFCE970/5AFFB716/5AFCF0A3/5AFCC6B4/5B02386B" Ref="#PWR?"  Part="1" 
AR Path="/5AFCE970/5AFFB716/5AFCF0A3/5B02EE25/5B02386B" Ref="#PWR?"  Part="1" 
AR Path="/5AFCE970/5AFFB716/5AFCF0A3/5B02EE26/5B02386B" Ref="#PWR?"  Part="1" 
AR Path="/5AFCE970/5AFFB716/5AFCF0A3/5B02EE27/5B02386B" Ref="#PWR?"  Part="1" 
AR Path="/5AFCE970/5AFFB716/5AFD08C6/5B02385F/5B02386B" Ref="#PWR?"  Part="1" 
AR Path="/5AFCE970/5AFFB716/5AFD08C6/5AFCD50F/5B02386B" Ref="#PWR?"  Part="1" 
AR Path="/5AFCE970/5AFFB716/5AFD08C6/5AFCD579/5B02386B" Ref="#PWR?"  Part="1" 
F 0 "#PWR?" H 4700 3400 50  0001 C CNN
F 1 "+3.3V" H 4700 3690 50  0000 C CNN
F 2 "" H 4700 3550 50  0000 C CNN
F 3 "" H 4700 3550 50  0000 C CNN
	1    4700 3550
	1    0    0    -1  
$EndComp
Wire Wire Line
	5000 3250 5000 3550
Wire Wire Line
	4950 3550 5000 3550
Connection ~ 5000 3550
Wire Wire Line
	5100 3250 5000 3250
Wire Wire Line
	4800 3050 5000 3050
Connection ~ 5000 3050
Connection ~ 5000 3250
Wire Wire Line
	5700 2600 5700 3150
Wire Wire Line
	5000 2600 5000 3050
Wire Wire Line
	5700 2600 5650 2600
Wire Wire Line
	5300 2850 5300 2800
Wire Wire Line
	5700 3150 5900 3150
Connection ~ 5700 3150
Wire Wire Line
	5300 3450 5300 3550
Wire Wire Line
	5250 3550 5300 3550
Connection ~ 5300 3550
Wire Wire Line
	4700 3550 4750 3550
Wire Wire Line
	5450 2600 5000 2600
Wire Wire Line
	5000 3550 5050 3550
Wire Wire Line
	5000 3050 5100 3050
Wire Wire Line
	5300 3550 5300 3750
$EndSCHEMATC
