EESchema Schematic File Version 4
LIBS:lasik-cache
EELAYER 26 0
EELAYER END
$Descr A4 11693 8268
encoding utf-8
Sheet 8 41
Title ""
Date ""
Rev ""
Comp ""
Comment1 ""
Comment2 ""
Comment3 ""
Comment4 ""
$EndDescr
$Comp
L lasik-rescue:R_Small R501
U 1 1 5AFE6301
P 3700 3400
AR Path="/5AFCE970/5AFD0534/5AFE32FA/5AFE6171/5AFE6301" Ref="R501"  Part="1" 
AR Path="/5AFCE970/5AFD0534/5AFE32FA/5B0224AC/5AFE6301" Ref="R701"  Part="1" 
AR Path="/5AFCE970/5AFD0534/5AFE32FA/5AFE85BA/5AFE6301" Ref="R801"  Part="1" 
AR Path="/5AFCE970/5AFD0534/5AFEB6FF/5AFE6171/5AFE6301" Ref="R1001"  Part="1" 
AR Path="/5AFCE970/5AFD0534/5AFEB6FF/5B0224AC/5AFE6301" Ref="R1201"  Part="1" 
AR Path="/5AFCE970/5AFD0534/5AFEB6FF/5AFE85BA/5AFE6301" Ref="R1301"  Part="1" 
AR Path="/5AFCE970/5AFD0534/5AFEBD9B/5AFE6171/5AFE6301" Ref="R1501"  Part="1" 
AR Path="/5AFCE970/5AFD0534/5AFEBD9B/5B0224AC/5AFE6301" Ref="R1701"  Part="1" 
AR Path="/5AFCE970/5AFD0534/5AFEBD9B/5AFE85BA/5AFE6301" Ref="R1801"  Part="1" 
AR Path="/5AFCE970/5AFD0534/5AFF09EF/5AFE6171/5AFE6301" Ref="R2001"  Part="1" 
AR Path="/5AFCE970/5AFD0534/5AFF09EF/5B0224AC/5AFE6301" Ref="R2201"  Part="1" 
AR Path="/5AFCE970/5AFD0534/5AFF09EF/5AFE85BA/5AFE6301" Ref="R2301"  Part="1" 
F 0 "R801" H 3600 3250 50  0000 L CNN
F 1 "47k" H 3750 3350 50  0000 L CNN
F 2 "Resistors_SMD:R_0805_HandSoldering" H 3700 3400 50  0001 C CNN
F 3 "" H 3700 3400 50  0001 C CNN
	1    3700 3400
	1    0    0    -1  
$EndComp
$Comp
L lasik-rescue:C_Small C502
U 1 1 5AFE6308
P 4150 3400
AR Path="/5AFCE970/5AFD0534/5AFE32FA/5AFE6171/5AFE6308" Ref="C502"  Part="1" 
AR Path="/5AFCE970/5AFD0534/5AFE32FA/5B0224AC/5AFE6308" Ref="C702"  Part="1" 
AR Path="/5AFCE970/5AFD0534/5AFE32FA/5AFE85BA/5AFE6308" Ref="C802"  Part="1" 
AR Path="/5AFCE970/5AFD0534/5AFEB6FF/5AFE6171/5AFE6308" Ref="C1002"  Part="1" 
AR Path="/5AFCE970/5AFD0534/5AFEB6FF/5B0224AC/5AFE6308" Ref="C1202"  Part="1" 
AR Path="/5AFCE970/5AFD0534/5AFEB6FF/5AFE85BA/5AFE6308" Ref="C1302"  Part="1" 
AR Path="/5AFCE970/5AFD0534/5AFEBD9B/5AFE6171/5AFE6308" Ref="C1502"  Part="1" 
AR Path="/5AFCE970/5AFD0534/5AFEBD9B/5B0224AC/5AFE6308" Ref="C1702"  Part="1" 
AR Path="/5AFCE970/5AFD0534/5AFEBD9B/5AFE85BA/5AFE6308" Ref="C1802"  Part="1" 
AR Path="/5AFCE970/5AFD0534/5AFF09EF/5AFE6171/5AFE6308" Ref="C2002"  Part="1" 
AR Path="/5AFCE970/5AFD0534/5AFF09EF/5B0224AC/5AFE6308" Ref="C2202"  Part="1" 
AR Path="/5AFCE970/5AFD0534/5AFF09EF/5AFE85BA/5AFE6308" Ref="C2302"  Part="1" 
AR Path="/5AFE6308" Ref="C502"  Part="1" 
F 0 "C802" H 3950 3250 50  0000 L CNN
F 1 "47p" H 3800 3550 50  0000 L CNN
F 2 "Resistors_SMD:R_0805_HandSoldering" H 4150 3400 50  0001 C CNN
F 3 "" H 4150 3400 50  0001 C CNN
	1    4150 3400
	1    0    0    -1  
$EndComp
Wire Wire Line
	3550 3300 3700 3300
Connection ~ 3700 3300
Wire Wire Line
	3700 3500 3900 3500
$Comp
L lasik-rescue:R_Small R502
U 1 1 5AFE631A
P 3950 2700
AR Path="/5AFCE970/5AFD0534/5AFE32FA/5AFE6171/5AFE631A" Ref="R502"  Part="1" 
AR Path="/5AFCE970/5AFD0534/5AFE32FA/5B0224AC/5AFE631A" Ref="R702"  Part="1" 
AR Path="/5AFCE970/5AFD0534/5AFE32FA/5AFE85BA/5AFE631A" Ref="R802"  Part="1" 
AR Path="/5AFCE970/5AFD0534/5AFEB6FF/5AFE6171/5AFE631A" Ref="R1002"  Part="1" 
AR Path="/5AFCE970/5AFD0534/5AFEB6FF/5B0224AC/5AFE631A" Ref="R1202"  Part="1" 
AR Path="/5AFCE970/5AFD0534/5AFEB6FF/5AFE85BA/5AFE631A" Ref="R1302"  Part="1" 
AR Path="/5AFCE970/5AFD0534/5AFEBD9B/5AFE6171/5AFE631A" Ref="R1502"  Part="1" 
AR Path="/5AFCE970/5AFD0534/5AFEBD9B/5B0224AC/5AFE631A" Ref="R1702"  Part="1" 
AR Path="/5AFCE970/5AFD0534/5AFEBD9B/5AFE85BA/5AFE631A" Ref="R1802"  Part="1" 
AR Path="/5AFCE970/5AFD0534/5AFF09EF/5AFE6171/5AFE631A" Ref="R2002"  Part="1" 
AR Path="/5AFCE970/5AFD0534/5AFF09EF/5B0224AC/5AFE631A" Ref="R2202"  Part="1" 
AR Path="/5AFCE970/5AFD0534/5AFF09EF/5AFE85BA/5AFE631A" Ref="R2302"  Part="1" 
F 0 "R802" V 4050 2650 50  0000 L CNN
F 1 "47k" V 3850 2550 50  0000 L CNN
F 2 "Resistors_SMD:R_0805_HandSoldering" H 3950 2700 50  0001 C CNN
F 3 "" H 3950 2700 50  0001 C CNN
	1    3950 2700
	0    -1   -1   0   
$EndComp
$Comp
L lasik-rescue:C_Small C501
U 1 1 5AFE6321
P 3950 2400
AR Path="/5AFCE970/5AFD0534/5AFE32FA/5AFE6171/5AFE6321" Ref="C501"  Part="1" 
AR Path="/5AFCE970/5AFD0534/5AFE32FA/5B0224AC/5AFE6321" Ref="C701"  Part="1" 
AR Path="/5AFCE970/5AFD0534/5AFE32FA/5AFE85BA/5AFE6321" Ref="C801"  Part="1" 
AR Path="/5AFCE970/5AFD0534/5AFEB6FF/5AFE6171/5AFE6321" Ref="C1001"  Part="1" 
AR Path="/5AFCE970/5AFD0534/5AFEB6FF/5B0224AC/5AFE6321" Ref="C1201"  Part="1" 
AR Path="/5AFCE970/5AFD0534/5AFEB6FF/5AFE85BA/5AFE6321" Ref="C1301"  Part="1" 
AR Path="/5AFCE970/5AFD0534/5AFEBD9B/5AFE6171/5AFE6321" Ref="C1501"  Part="1" 
AR Path="/5AFCE970/5AFD0534/5AFEBD9B/5B0224AC/5AFE6321" Ref="C1701"  Part="1" 
AR Path="/5AFCE970/5AFD0534/5AFEBD9B/5AFE85BA/5AFE6321" Ref="C1801"  Part="1" 
AR Path="/5AFCE970/5AFD0534/5AFF09EF/5AFE6171/5AFE6321" Ref="C2001"  Part="1" 
AR Path="/5AFCE970/5AFD0534/5AFF09EF/5B0224AC/5AFE6321" Ref="C2201"  Part="1" 
AR Path="/5AFCE970/5AFD0534/5AFF09EF/5AFE85BA/5AFE6321" Ref="C2301"  Part="1" 
AR Path="/5AFE6321" Ref="C501"  Part="1" 
F 0 "C801" V 4000 2100 50  0000 L CNN
F 1 "47p" V 3850 2250 50  0000 L CNN
F 2 "Resistors_SMD:R_0805_HandSoldering" H 3950 2400 50  0001 C CNN
F 3 "" H 3950 2400 50  0001 C CNN
	1    3950 2400
	0    -1   -1   0   
$EndComp
Wire Wire Line
	4050 2400 4150 2400
Wire Wire Line
	4150 2400 4150 2550
Wire Wire Line
	4150 2700 4050 2700
Wire Wire Line
	3850 2400 3750 2400
Wire Wire Line
	3750 2400 3750 2700
Wire Wire Line
	3750 2700 3850 2700
$Comp
L lasik-rescue:TL074 U501
U 4 1 5AFE632E
P 4450 3100
AR Path="/5AFCE970/5AFD0534/5AFE32FA/5AFE6171/5AFE632E" Ref="U501"  Part="3" 
AR Path="/5AFCE970/5AFD0534/5AFE32FA/5B0224AC/5AFE632E" Ref="U501"  Part="1" 
AR Path="/5AFCE970/5AFD0534/5AFE32FA/5AFE85BA/5AFE632E" Ref="U501"  Part="4" 
AR Path="/5AFCE970/5AFD0534/5AFEB6FF/5AFE6171/5AFE632E" Ref="U1001"  Part="3" 
AR Path="/5AFCE970/5AFD0534/5AFEB6FF/5B0224AC/5AFE632E" Ref="U1001"  Part="1" 
AR Path="/5AFCE970/5AFD0534/5AFEB6FF/5AFE85BA/5AFE632E" Ref="U1001"  Part="4" 
AR Path="/5AFCE970/5AFD0534/5AFEBD9B/5AFE6171/5AFE632E" Ref="U1501"  Part="3" 
AR Path="/5AFCE970/5AFD0534/5AFEBD9B/5B0224AC/5AFE632E" Ref="U1501"  Part="1" 
AR Path="/5AFCE970/5AFD0534/5AFEBD9B/5AFE85BA/5AFE632E" Ref="U1501"  Part="4" 
AR Path="/5AFCE970/5AFD0534/5AFF09EF/5AFE6171/5AFE632E" Ref="U2001"  Part="3" 
AR Path="/5AFCE970/5AFD0534/5AFF09EF/5B0224AC/5AFE632E" Ref="U2001"  Part="1" 
AR Path="/5AFCE970/5AFD0534/5AFF09EF/5AFE85BA/5AFE632E" Ref="U2001"  Part="4" 
F 0 "U501" H 4500 3300 50  0000 C CNN
F 1 "TL074" H 4500 2900 50  0000 C CNN
F 2 "Housings_SOIC:SOIC-14_3.9x8.7mm_Pitch1.27mm" H 4400 3200 50  0001 C CNN
F 3 "http://www.ti.com/general/docs/lit/getliterature.tsp?genericPartNumber=tl074&fileType=pdf" H 4500 3300 50  0001 C CNN
	4    4450 3100
	1    0    0    1   
$EndComp
$Comp
L power:+12V #PWR?
U 1 1 5AFE6335
P 4350 3450
AR Path="/5AFCE970/5AFD0534/5AFE32FA/5AFE6171/5AFE6335" Ref="#PWR?"  Part="1" 
AR Path="/5AFCE970/5AFD0534/5AFE32FA/5B0224AC/5AFE6335" Ref="#PWR?"  Part="1" 
AR Path="/5AFCE970/5AFD0534/5AFE32FA/5AFE85BA/5AFE6335" Ref="#PWR?"  Part="1" 
AR Path="/5AFCE970/5AFD0534/5AFEB6FF/5AFE6171/5AFE6335" Ref="#PWR?"  Part="1" 
AR Path="/5AFCE970/5AFD0534/5AFEB6FF/5B0224AC/5AFE6335" Ref="#PWR?"  Part="1" 
AR Path="/5AFCE970/5AFD0534/5AFEB6FF/5AFE85BA/5AFE6335" Ref="#PWR?"  Part="1" 
AR Path="/5AFCE970/5AFD0534/5AFEBD9B/5AFE6171/5AFE6335" Ref="#PWR?"  Part="1" 
AR Path="/5AFCE970/5AFD0534/5AFEBD9B/5B0224AC/5AFE6335" Ref="#PWR?"  Part="1" 
AR Path="/5AFCE970/5AFD0534/5AFEBD9B/5AFE85BA/5AFE6335" Ref="#PWR?"  Part="1" 
AR Path="/5AFCE970/5AFD0534/5AFF09EF/5AFE6171/5AFE6335" Ref="#PWR?"  Part="1" 
AR Path="/5AFCE970/5AFD0534/5AFF09EF/5B0224AC/5AFE6335" Ref="#PWR?"  Part="1" 
AR Path="/5AFCE970/5AFD0534/5AFF09EF/5AFE85BA/5AFE6335" Ref="#PWR?"  Part="1" 
F 0 "#PWR?" H 4350 3300 50  0001 C CNN
F 1 "+12V" H 4350 3590 50  0000 C CNN
F 2 "" H 4350 3450 50  0000 C CNN
F 3 "" H 4350 3450 50  0000 C CNN
	1    4350 3450
	-1   0    0    1   
$EndComp
$Comp
L lasik-rescue:GNDPWR #PWR?
U 1 1 5AFE633B
P 4350 2750
AR Path="/5AFCE970/5AFD0534/5AFE32FA/5AFE6171/5AFE633B" Ref="#PWR?"  Part="1" 
AR Path="/5AFCE970/5AFD0534/5AFE32FA/5B0224AC/5AFE633B" Ref="#PWR?"  Part="1" 
AR Path="/5AFCE970/5AFD0534/5AFE32FA/5AFE85BA/5AFE633B" Ref="#PWR?"  Part="1" 
AR Path="/5AFCE970/5AFD0534/5AFEB6FF/5AFE6171/5AFE633B" Ref="#PWR?"  Part="1" 
AR Path="/5AFCE970/5AFD0534/5AFEB6FF/5B0224AC/5AFE633B" Ref="#PWR?"  Part="1" 
AR Path="/5AFCE970/5AFD0534/5AFEB6FF/5AFE85BA/5AFE633B" Ref="#PWR?"  Part="1" 
AR Path="/5AFCE970/5AFD0534/5AFEBD9B/5AFE6171/5AFE633B" Ref="#PWR?"  Part="1" 
AR Path="/5AFCE970/5AFD0534/5AFEBD9B/5B0224AC/5AFE633B" Ref="#PWR?"  Part="1" 
AR Path="/5AFCE970/5AFD0534/5AFEBD9B/5AFE85BA/5AFE633B" Ref="#PWR?"  Part="1" 
AR Path="/5AFCE970/5AFD0534/5AFF09EF/5AFE6171/5AFE633B" Ref="#PWR?"  Part="1" 
AR Path="/5AFCE970/5AFD0534/5AFF09EF/5B0224AC/5AFE633B" Ref="#PWR?"  Part="1" 
AR Path="/5AFCE970/5AFD0534/5AFF09EF/5AFE85BA/5AFE633B" Ref="#PWR?"  Part="1" 
F 0 "#PWR?" H 4350 2550 50  0001 C CNN
F 1 "GNDPWR" H 4350 2620 50  0000 C CNN
F 2 "" H 4350 2700 50  0000 C CNN
F 3 "" H 4350 2700 50  0000 C CNN
	1    4350 2750
	-1   0    0    1   
$EndComp
Wire Wire Line
	3600 3000 3750 3000
Wire Wire Line
	4150 3300 4150 3200
Connection ~ 4150 3300
Wire Wire Line
	4750 3100 4750 2550
Wire Wire Line
	4750 2550 4150 2550
Connection ~ 4150 2550
Connection ~ 3750 3000
Connection ~ 3750 2700
Text HLabel 5050 3100 2    60   Input ~ 0
sensor_amplified
Wire Wire Line
	5050 3100 4750 3100
Connection ~ 4750 3100
Text HLabel 3900 3700 3    60   Input ~ 0
sense_voltage
Wire Wire Line
	3900 3700 3900 3500
Connection ~ 3900 3500
Wire Wire Line
	4350 3450 4350 3400
Wire Wire Line
	4350 2800 4350 2750
Text HLabel 3600 3000 0    60   Input ~ 0
+sensor
Text HLabel 3550 3300 0    60   Input ~ 0
-sensor
Wire Wire Line
	3700 3300 4150 3300
Wire Wire Line
	4150 2550 4150 2700
Wire Wire Line
	3750 3000 4150 3000
Wire Wire Line
	3750 2700 3750 3000
Wire Wire Line
	3900 3500 4150 3500
$EndSCHEMATC
