EESchema Schematic File Version 2
LIBS:lasik-rescue
LIBS:power
LIBS:device
LIBS:switches
LIBS:relays
LIBS:transistors
LIBS:conn
LIBS:linear
LIBS:regul
LIBS:74xx
LIBS:cmos4000
LIBS:adc-dac
LIBS:memory
LIBS:xilinx
LIBS:microcontrollers
LIBS:dsp
LIBS:microchip
LIBS:analog_switches
LIBS:motorola
LIBS:texas
LIBS:intel
LIBS:audio
LIBS:interface
LIBS:digital-audio
LIBS:philips
LIBS:display
LIBS:cypress
LIBS:siliconi
LIBS:opto
LIBS:atmel
LIBS:contrib
LIBS:valves
LIBS:stm32duino_boards
LIBS:bluepill_breakouts
LIBS:lasik-cache
EELAYER 25 0
EELAYER END
$Descr A4 11693 8268
encoding utf-8
Sheet 6 51
Title ""
Date ""
Rev ""
Comp ""
Comment1 ""
Comment2 ""
Comment3 ""
Comment4 ""
$EndDescr
$Comp
L R_Small R301
U 1 1 5AFA9A22
P 4200 4000
AR Path="/5AFA7CE8/5AFA9BD5/5AFA9A22" Ref="R301"  Part="1" 
AR Path="/5AFA7CE8/5AFA9BD8/5AFA9A22" Ref="R401"  Part="1" 
AR Path="/5AFA7CE8/5AFA819D/5AFA9A22" Ref="R601"  Part="1" 
F 0 "R601" H 4100 3850 50  0000 L CNN
F 1 "R_Small" H 4230 3960 50  0000 L CNN
F 2 "Resistors_SMD:R_0805_HandSoldering" H 4200 4000 50  0001 C CNN
F 3 "" H 4200 4000 50  0001 C CNN
	1    4200 4000
	1    0    0    -1  
$EndComp
$Comp
L C_Small C302
U 1 1 5AFA9A29
P 4650 4000
AR Path="/5AFA7CE8/5AFA9BD5/5AFA9A29" Ref="C302"  Part="1" 
AR Path="/5AFA7CE8/5AFA9BD8/5AFA9A29" Ref="C402"  Part="1" 
AR Path="/5AFA7CE8/5AFA819D/5AFA9A29" Ref="C602"  Part="1" 
F 0 "C602" H 4450 3850 50  0000 L CNN
F 1 "C_Small" H 4350 4150 50  0000 L CNN
F 2 "Resistors_SMD:R_0805_HandSoldering" H 4650 4000 50  0001 C CNN
F 3 "" H 4650 4000 50  0001 C CNN
	1    4650 4000
	1    0    0    -1  
$EndComp
$Comp
L D_Photo_ALT D301
U 1 1 5AFA9A30
P 4200 3750
AR Path="/5AFA7CE8/5AFA9BD5/5AFA9A30" Ref="D301"  Part="1" 
AR Path="/5AFA7CE8/5AFA9BD8/5AFA9A30" Ref="D401"  Part="1" 
AR Path="/5AFA7CE8/5AFA819D/5AFA9A30" Ref="D601"  Part="1" 
F 0 "D601" H 4050 3950 50  0000 L CNN
F 1 "D_Photo_ALT" H 4160 3640 50  0000 C CNN
F 2 "Pin_Headers:Pin_Header_Straight_1x02" H 4150 3750 50  0001 C CNN
F 3 "" H 4150 3750 50  0001 C CNN
	1    4200 3750
	0    1    1    0   
$EndComp
Wire Wire Line
	4200 3850 4200 3900
Wire Wire Line
	4200 3900 4650 3900
Connection ~ 4200 3900
Wire Wire Line
	4650 4100 4200 4100
$Comp
L R_Small R302
U 1 1 5AFA9A3B
P 4400 3250
AR Path="/5AFA7CE8/5AFA9BD5/5AFA9A3B" Ref="R302"  Part="1" 
AR Path="/5AFA7CE8/5AFA9BD8/5AFA9A3B" Ref="R402"  Part="1" 
AR Path="/5AFA7CE8/5AFA819D/5AFA9A3B" Ref="R602"  Part="1" 
F 0 "R602" V 4500 3250 50  0000 L CNN
F 1 "R_Small" V 4300 3100 50  0000 L CNN
F 2 "Resistors_SMD:R_0805_HandSoldering" H 4400 3250 50  0001 C CNN
F 3 "" H 4400 3250 50  0001 C CNN
	1    4400 3250
	0    -1   -1   0   
$EndComp
$Comp
L C_Small C301
U 1 1 5AFA9A42
P 4400 2950
AR Path="/5AFA7CE8/5AFA9BD5/5AFA9A42" Ref="C301"  Part="1" 
AR Path="/5AFA7CE8/5AFA9BD8/5AFA9A42" Ref="C401"  Part="1" 
AR Path="/5AFA7CE8/5AFA819D/5AFA9A42" Ref="C601"  Part="1" 
F 0 "C601" V 4450 2700 50  0000 L CNN
F 1 "C_Small" V 4300 2800 50  0000 L CNN
F 2 "Resistors_SMD:R_0805_HandSoldering" H 4400 2950 50  0001 C CNN
F 3 "" H 4400 2950 50  0001 C CNN
	1    4400 2950
	0    -1   -1   0   
$EndComp
Wire Wire Line
	4500 2950 4600 2950
Wire Wire Line
	4600 2950 4600 3250
Wire Wire Line
	4600 3250 4500 3250
Wire Wire Line
	4300 2950 4200 2950
Wire Wire Line
	4200 2950 4200 3550
Wire Wire Line
	4200 3250 4300 3250
$Comp
L MCP6004 U301
U 4 1 5AFA9A4F
P 4950 3700
AR Path="/5AFA7CE8/5AFA9BD5/5AFA9A4F" Ref="U301"  Part="1" 
AR Path="/5AFA7CE8/5AFA9BD8/5AFA9A4F" Ref="U301"  Part="2" 
AR Path="/5AFA7CE8/5AFA819D/5AFA9A4F" Ref="U301"  Part="4" 
F 0 "U301" H 5000 3900 50  0000 C CNN
F 1 "TBD" H 5100 3500 50  0000 C CNN
F 2 "SMD_Packages:SOIC-14_N" H 4900 3800 50  0001 C CNN
F 3 "" H 5000 3900 50  0000 C CNN
	4    4950 3700
	1    0    0    1   
$EndComp
$Comp
L +12V #PWR?
U 1 1 5AFA9A56
P 4850 4050
AR Path="/5AFA7CE8/5AFA9BD5/5AFA9A56" Ref="#PWR?"  Part="1" 
AR Path="/5AFA7CE8/5AFA9BD8/5AFA9A56" Ref="#PWR?"  Part="1" 
AR Path="/5AFA7CE8/5AFA819D/5AFA9A56" Ref="#PWR?"  Part="1" 
F 0 "#PWR?" H 4850 3900 50  0001 C CNN
F 1 "+12V" H 4850 4190 50  0000 C CNN
F 2 "" H 4850 4050 50  0000 C CNN
F 3 "" H 4850 4050 50  0000 C CNN
	1    4850 4050
	-1   0    0    1   
$EndComp
$Comp
L GNDPWR #PWR?
U 1 1 5AFA9A5D
P 4850 3350
AR Path="/5AFA7CE8/5AFA9BD5/5AFA9A5D" Ref="#PWR?"  Part="1" 
AR Path="/5AFA7CE8/5AFA9BD8/5AFA9A5D" Ref="#PWR?"  Part="1" 
AR Path="/5AFA7CE8/5AFA819D/5AFA9A5D" Ref="#PWR?"  Part="1" 
F 0 "#PWR?" H 4850 3150 50  0001 C CNN
F 1 "GNDPWR" H 4850 3220 50  0000 C CNN
F 2 "" H 4850 3300 50  0000 C CNN
F 3 "" H 4850 3300 50  0000 C CNN
	1    4850 3350
	-1   0    0    1   
$EndComp
Wire Wire Line
	4200 3550 4650 3550
Wire Wire Line
	4650 3550 4650 3600
Wire Wire Line
	4650 3900 4650 3800
Connection ~ 4650 3900
Wire Wire Line
	5250 3700 5250 3100
Wire Wire Line
	5250 3100 4600 3100
Connection ~ 4600 3100
Connection ~ 4200 3550
Connection ~ 4200 3250
Text HLabel 5550 3700 2    60   Input ~ 0
photo_amplified
Wire Wire Line
	5550 3700 5250 3700
Connection ~ 5250 3700
Text HLabel 4400 4300 3    60   Input ~ 0
sense_voltage
Wire Wire Line
	4400 4300 4400 4100
Connection ~ 4400 4100
Wire Wire Line
	4850 4050 4850 4000
Wire Wire Line
	4850 3400 4850 3350
$EndSCHEMATC
