PCBNEW-LibModule-V1   00/00/0000-00:00:00
$INDEX
MAPLEMINI_LEAF
BLUEPILL
BLACKPILL
MAPLEMINI_BAITE
$EndINDEX
$MODULE MAPLEMINI_LEAF
Po 0 0 0 15 00000000 00000000 ~~
Li MAPLEMINI_LEAF
Sc 00000000
Op 0 0 0
T0 0 0 0 0 0 0 N I 25 "ref**"
T1 0 0 0 0 0 0 N I 26 "val**"
DS -9800 -3600 9800 -3600 50 24
DS 9800 3600 -9800 3600 50 24
DS 10100 3300 10100 -3300 50 24
DA 9800 3300 9800 3600 900 50 24
DA 9800 -3300 9800 -3600 -900 50 24
DA -9800 -3300 -9800 -3600 900 50 24
DS -10100 -3300 -10100 3300 50 24
DA -9800 3300 -10100 3300 900 50 24
DS -10100 -1500 -10650 -1500 50 24
DS -10650 -1500 -10650 1500 50 24
DS -10650 1500 -10100 1500 50 24
$PAD
Sh "1" O 740 740 0 0 900
Dr 400 0 0
At STD N 00C0FFFF
Po -9500 3000
$EndPAD
$PAD
Sh "2" O 740 740 0 0 900
Dr 400 0 0
At STD N 00C0FFFF
Po -8500 3000
$EndPAD
$PAD
Sh "3" O 740 740 0 0 900
Dr 400 0 0
At STD N 00C0FFFF
Po -7500 3000
$EndPAD
$PAD
Sh "4" O 740 740 0 0 900
Dr 400 0 0
At STD N 00C0FFFF
Po -6500 3000
$EndPAD
$PAD
Sh "5" O 740 740 0 0 900
Dr 400 0 0
At STD N 00C0FFFF
Po -5500 3000
$EndPAD
$PAD
Sh "6" O 740 740 0 0 900
Dr 400 0 0
At STD N 00C0FFFF
Po -4500 3000
$EndPAD
$PAD
Sh "7" O 740 740 0 0 900
Dr 400 0 0
At STD N 00C0FFFF
Po -3500 3000
$EndPAD
$PAD
Sh "8" O 740 740 0 0 900
Dr 400 0 0
At STD N 00C0FFFF
Po -2500 3000
$EndPAD
$PAD
Sh "9" O 740 740 0 0 900
Dr 400 0 0
At STD N 00C0FFFF
Po -1500 3000
$EndPAD
$PAD
Sh "10" O 740 740 0 0 900
Dr 400 0 0
At STD N 00C0FFFF
Po -500 3000
$EndPAD
$PAD
Sh "11" O 740 740 0 0 900
Dr 400 0 0
At STD N 00C0FFFF
Po 500 3000
$EndPAD
$PAD
Sh "12" O 740 740 0 0 900
Dr 400 0 0
At STD N 00C0FFFF
Po 1500 3000
$EndPAD
$PAD
Sh "13" O 740 740 0 0 900
Dr 400 0 0
At STD N 00C0FFFF
Po 2500 3000
$EndPAD
$PAD
Sh "14" O 740 740 0 0 900
Dr 400 0 0
At STD N 00C0FFFF
Po 3500 3000
$EndPAD
$PAD
Sh "15" O 740 740 0 0 900
Dr 400 0 0
At STD N 00C0FFFF
Po 4500 3000
$EndPAD
$PAD
Sh "16" O 740 740 0 0 900
Dr 400 0 0
At STD N 00C0FFFF
Po 5500 3000
$EndPAD
$PAD
Sh "17" O 740 740 0 0 900
Dr 400 0 0
At STD N 00C0FFFF
Po 6500 3000
$EndPAD
$PAD
Sh "18" O 740 740 0 0 900
Dr 400 0 0
At STD N 00C0FFFF
Po 7500 3000
$EndPAD
$PAD
Sh "19" O 740 740 0 0 900
Dr 400 0 0
At STD N 00C0FFFF
Po 8500 3000
$EndPAD
$PAD
Sh "20" O 740 740 0 0 900
Dr 400 0 0
At STD N 00C0FFFF
Po 9500 3000
$EndPAD
$PAD
Sh "21" O 740 740 0 0 2700
Dr 400 0 0
At STD N 00C0FFFF
Po 9500 -3000
$EndPAD
$PAD
Sh "22" O 740 740 0 0 2700
Dr 400 0 0
At STD N 00C0FFFF
Po 8500 -3000
$EndPAD
$PAD
Sh "23" O 740 740 0 0 2700
Dr 400 0 0
At STD N 00C0FFFF
Po 7500 -3000
$EndPAD
$PAD
Sh "24" O 740 740 0 0 2700
Dr 400 0 0
At STD N 00C0FFFF
Po 6500 -3000
$EndPAD
$PAD
Sh "25" O 740 740 0 0 2700
Dr 400 0 0
At STD N 00C0FFFF
Po 5500 -3000
$EndPAD
$PAD
Sh "26" O 740 740 0 0 2700
Dr 400 0 0
At STD N 00C0FFFF
Po 4500 -3000
$EndPAD
$PAD
Sh "27" O 740 740 0 0 2700
Dr 400 0 0
At STD N 00C0FFFF
Po 3500 -3000
$EndPAD
$PAD
Sh "28" O 740 740 0 0 2700
Dr 400 0 0
At STD N 00C0FFFF
Po 2500 -3000
$EndPAD
$PAD
Sh "29" O 740 740 0 0 2700
Dr 400 0 0
At STD N 00C0FFFF
Po 1500 -3000
$EndPAD
$PAD
Sh "30" O 740 740 0 0 2700
Dr 400 0 0
At STD N 00C0FFFF
Po 500 -3000
$EndPAD
$PAD
Sh "31" O 740 740 0 0 2700
Dr 400 0 0
At STD N 00C0FFFF
Po -500 -3000
$EndPAD
$PAD
Sh "32" O 740 740 0 0 2700
Dr 400 0 0
At STD N 00C0FFFF
Po -1500 -3000
$EndPAD
$PAD
Sh "33" O 740 740 0 0 2700
Dr 400 0 0
At STD N 00C0FFFF
Po -2500 -3000
$EndPAD
$PAD
Sh "34" O 740 740 0 0 2700
Dr 400 0 0
At STD N 00C0FFFF
Po -3500 -3000
$EndPAD
$PAD
Sh "35" O 740 740 0 0 2700
Dr 400 0 0
At STD N 00C0FFFF
Po -4500 -3000
$EndPAD
$PAD
Sh "36" O 740 740 0 0 2700
Dr 400 0 0
At STD N 00C0FFFF
Po -5500 -3000
$EndPAD
$PAD
Sh "37" O 740 740 0 0 2700
Dr 400 0 0
At STD N 00C0FFFF
Po -6500 -3000
$EndPAD
$PAD
Sh "38" O 740 740 0 0 2700
Dr 400 0 0
At STD N 00C0FFFF
Po -7500 -3000
$EndPAD
$PAD
Sh "39" O 740 740 0 0 2700
Dr 400 0 0
At STD N 00C0FFFF
Po -8500 -3000
$EndPAD
$PAD
Sh "40" O 740 740 0 0 2700
Dr 400 0 0
At STD N 00C0FFFF
Po -9500 -3000
$EndPAD
$EndMODULE MAPLEMINI_LEAF
$MODULE BLUEPILL
Po 0 0 0 15 00000000 00000000 ~~
Li BLUEPILL
Sc 00000000
Op 0 0 0
T0 0 0 0 0 0 0 N I 25 "ref**"
T1 0 0 0 0 0 0 N I 26 "val**"
DS -3500 10500 3500 10500 50 24
DS 3500 10500 3500 -9500 50 24
DS 3500 -9500 -3500 -9500 50 24
DS -3500 -9500 -3500 10500 50 24
DS -1000 10000 1000 10000 50 24
DS 1000 10000 1000 11000 50 24
DS 1000 11000 -1000 11000 50 24
DS -1000 11000 -1000 10000 50 24
$PAD
Sh "P$1" O 471 471 0 0 0
Dr 314 0 0
At STD N 00C0FFFF
Po -3000 -9000
$EndPAD
$PAD
Sh "P$2" O 471 471 0 0 0
Dr 314 0 0
At STD N 00C0FFFF
Po -3000 -8000
$EndPAD
$PAD
Sh "P$3" O 471 471 0 0 0
Dr 314 0 0
At STD N 00C0FFFF
Po -3000 -7000
$EndPAD
$PAD
Sh "P$4" O 471 471 0 0 0
Dr 314 0 0
At STD N 00C0FFFF
Po -3000 -6000
$EndPAD
$PAD
Sh "P$5" O 471 471 0 0 0
Dr 314 0 0
At STD N 00C0FFFF
Po -3000 -5000
$EndPAD
$PAD
Sh "P$6" O 471 471 0 0 0
Dr 314 0 0
At STD N 00C0FFFF
Po -3000 -4000
$EndPAD
$PAD
Sh "P$7" O 471 471 0 0 0
Dr 314 0 0
At STD N 00C0FFFF
Po -3000 -3000
$EndPAD
$PAD
Sh "P$8" O 471 471 0 0 0
Dr 314 0 0
At STD N 00C0FFFF
Po -3000 -2000
$EndPAD
$PAD
Sh "P$9" O 471 471 0 0 0
Dr 314 0 0
At STD N 00C0FFFF
Po -3000 -1000
$EndPAD
$PAD
Sh "P$10" O 471 471 0 0 0
Dr 314 0 0
At STD N 00C0FFFF
Po -3000 0
$EndPAD
$PAD
Sh "P$11" O 471 471 0 0 0
Dr 314 0 0
At STD N 00C0FFFF
Po -3000 1000
$EndPAD
$PAD
Sh "P$12" O 471 471 0 0 0
Dr 314 0 0
At STD N 00C0FFFF
Po -3000 2000
$EndPAD
$PAD
Sh "P$13" O 471 471 0 0 0
Dr 314 0 0
At STD N 00C0FFFF
Po -3000 3000
$EndPAD
$PAD
Sh "P$14" O 471 471 0 0 0
Dr 314 0 0
At STD N 00C0FFFF
Po -3000 4000
$EndPAD
$PAD
Sh "P$15" O 471 471 0 0 0
Dr 314 0 0
At STD N 00C0FFFF
Po -3000 5000
$EndPAD
$PAD
Sh "P$16" O 471 471 0 0 0
Dr 314 0 0
At STD N 00C0FFFF
Po -3000 6000
$EndPAD
$PAD
Sh "P$17" O 471 471 0 0 0
Dr 314 0 0
At STD N 00C0FFFF
Po -3000 7000
$EndPAD
$PAD
Sh "P$18" O 471 471 0 0 0
Dr 314 0 0
At STD N 00C0FFFF
Po -3000 8000
$EndPAD
$PAD
Sh "P$19" O 471 471 0 0 0
Dr 314 0 0
At STD N 00C0FFFF
Po -3000 9000
$EndPAD
$PAD
Sh "P$20" O 471 471 0 0 0
Dr 314 0 0
At STD N 00C0FFFF
Po -3000 10000
$EndPAD
$PAD
Sh "P$21" O 471 471 0 0 0
Dr 314 0 0
At STD N 00C0FFFF
Po 3000 10000
$EndPAD
$PAD
Sh "P$22" O 471 471 0 0 0
Dr 314 0 0
At STD N 00C0FFFF
Po 3000 9000
$EndPAD
$PAD
Sh "P$23" O 471 471 0 0 0
Dr 314 0 0
At STD N 00C0FFFF
Po 3000 8000
$EndPAD
$PAD
Sh "P$24" O 471 471 0 0 0
Dr 314 0 0
At STD N 00C0FFFF
Po 3000 7000
$EndPAD
$PAD
Sh "P$25" O 471 471 0 0 0
Dr 314 0 0
At STD N 00C0FFFF
Po 3000 6000
$EndPAD
$PAD
Sh "P$26" O 471 471 0 0 0
Dr 314 0 0
At STD N 00C0FFFF
Po 3000 5000
$EndPAD
$PAD
Sh "P$27" O 471 471 0 0 0
Dr 314 0 0
At STD N 00C0FFFF
Po 3000 4000
$EndPAD
$PAD
Sh "P$28" O 471 471 0 0 0
Dr 314 0 0
At STD N 00C0FFFF
Po 3000 3000
$EndPAD
$PAD
Sh "P$29" O 471 471 0 0 0
Dr 314 0 0
At STD N 00C0FFFF
Po 3000 2000
$EndPAD
$PAD
Sh "P$30" O 471 471 0 0 0
Dr 314 0 0
At STD N 00C0FFFF
Po 3000 1000
$EndPAD
$PAD
Sh "P$31" O 471 471 0 0 0
Dr 314 0 0
At STD N 00C0FFFF
Po 3000 0
$EndPAD
$PAD
Sh "P$32" O 471 471 0 0 0
Dr 314 0 0
At STD N 00C0FFFF
Po 3000 -1000
$EndPAD
$PAD
Sh "P$33" O 471 471 0 0 0
Dr 314 0 0
At STD N 00C0FFFF
Po 3000 -2000
$EndPAD
$PAD
Sh "P$34" O 471 471 0 0 0
Dr 314 0 0
At STD N 00C0FFFF
Po 3000 -3000
$EndPAD
$PAD
Sh "P$35" O 471 471 0 0 0
Dr 314 0 0
At STD N 00C0FFFF
Po 3000 -4000
$EndPAD
$PAD
Sh "P$36" O 471 471 0 0 0
Dr 314 0 0
At STD N 00C0FFFF
Po 3000 -5000
$EndPAD
$PAD
Sh "P$37" O 471 471 0 0 0
Dr 314 0 0
At STD N 00C0FFFF
Po 3000 -6000
$EndPAD
$PAD
Sh "P$38" O 471 471 0 0 0
Dr 314 0 0
At STD N 00C0FFFF
Po 3000 -7000
$EndPAD
$PAD
Sh "P$39" O 471 471 0 0 0
Dr 314 0 0
At STD N 00C0FFFF
Po 3000 -8000
$EndPAD
$PAD
Sh "P$40" O 471 471 0 0 0
Dr 314 0 0
At STD N 00C0FFFF
Po 3000 -9000
$EndPAD
$EndMODULE BLUEPILL
$MODULE BLACKPILL
Po 0 0 0 15 00000000 00000000 ~~
Li BLACKPILL
Sc 00000000
Op 0 0 0
T0 0 0 0 0 0 0 N I 25 "ref**"
T1 0 0 0 0 0 0 N I 26 "val**"
DS 5000 -11500 5000 11000 50 24
DS 5000 11000 -5000 11000 50 24
DS -5000 11000 -5000 -11500 50 24
DS 5000 -11500 -5000 -11500 50 24
DS -1000 9500 1000 9500 50 24
DS 1000 9500 1000 11500 50 24
DS 1000 11500 -1000 11500 50 24
DS -1000 11500 -1000 9500 50 24
DC 4000 10000 4707 10000 50 24
DC -4000 10000 -3293 10000 50 24
DC 4000 -10500 4707 -10500 50 24
DC -4000 -10500 -3293 -10500 50 24
$PAD
Sh "GND_2" O 471 471 0 0 0
Dr 314 0 0
At STD N 00C0FFFF
Po 3500 7900
$EndPAD
$PAD
Sh "PB8" O 471 471 0 0 0
Dr 314 0 0
At STD N 00C0FFFF
Po 3500 6900
$EndPAD
$PAD
Sh "PB9" O 471 471 0 0 0
Dr 314 0 0
At STD N 00C0FFFF
Po 3500 5900
$EndPAD
$PAD
Sh "PC13" O 471 471 0 0 0
Dr 314 0 0
At STD N 00C0FFFF
Po 3500 4900
$EndPAD
$PAD
Sh "RST" O 471 471 0 0 0
Dr 314 0 0
At STD N 00C0FFFF
Po 3500 3900
$EndPAD
$PAD
Sh "PA0" O 471 471 0 0 0
Dr 314 0 0
At STD N 00C0FFFF
Po 3500 2900
$EndPAD
$PAD
Sh "PA1" O 471 471 0 0 0
Dr 314 0 0
At STD N 00C0FFFF
Po 3500 1900
$EndPAD
$PAD
Sh "PA2" O 471 471 0 0 0
Dr 314 0 0
At STD N 00C0FFFF
Po 3500 900
$EndPAD
$PAD
Sh "PA4" O 471 471 0 0 0
Dr 314 0 0
At STD N 00C0FFFF
Po 3500 -1100
$EndPAD
$PAD
Sh "PA5" O 471 471 0 0 0
Dr 314 0 0
At STD N 00C0FFFF
Po 3500 -2100
$EndPAD
$PAD
Sh "PA6" O 471 471 0 0 0
Dr 314 0 0
At STD N 00C0FFFF
Po 3500 -3100
$EndPAD
$PAD
Sh "PA7" O 471 471 0 0 0
Dr 314 0 0
At STD N 00C0FFFF
Po 3500 -4100
$EndPAD
$PAD
Sh "PB0" O 471 471 0 0 0
Dr 314 0 0
At STD N 00C0FFFF
Po 3500 -5100
$EndPAD
$PAD
Sh "PB1" O 471 471 0 0 0
Dr 314 0 0
At STD N 00C0FFFF
Po 3500 -6100
$EndPAD
$PAD
Sh "PB10" O 471 471 0 0 0
Dr 314 0 0
At STD N 00C0FFFF
Po 3500 -7100
$EndPAD
$PAD
Sh "PB11" O 471 471 0 0 0
Dr 314 0 0
At STD N 00C0FFFF
Po 3500 -8100
$EndPAD
$PAD
Sh "PA3" O 471 471 0 0 0
Dr 314 0 0
At STD N 00C0FFFF
Po 3500 -100
$EndPAD
$PAD
Sh "GND_1" O 471 471 0 0 0
Dr 314 0 0
At STD N 00C0FFFF
Po -3500 7900
$EndPAD
$PAD
Sh "+3.3" O 471 471 0 0 0
Dr 314 0 0
At STD N 00C0FFFF
Po -3500 6900
$EndPAD
$PAD
Sh "PB7" O 471 471 0 0 0
Dr 314 0 0
At STD N 00C0FFFF
Po -3500 5900
$EndPAD
$PAD
Sh "PB6" O 471 471 0 0 0
Dr 314 0 0
At STD N 00C0FFFF
Po -3500 4900
$EndPAD
$PAD
Sh "PB5" O 471 471 0 0 0
Dr 314 0 0
At STD N 00C0FFFF
Po -3500 3900
$EndPAD
$PAD
Sh "PB4" O 471 471 0 0 0
Dr 314 0 0
At STD N 00C0FFFF
Po -3500 2900
$EndPAD
$PAD
Sh "PB3" O 471 471 0 0 0
Dr 314 0 0
At STD N 00C0FFFF
Po -3500 1900
$EndPAD
$PAD
Sh "PA15" O 471 471 0 0 0
Dr 314 0 0
At STD N 00C0FFFF
Po -3500 900
$EndPAD
$PAD
Sh "PA12" O 471 471 0 0 0
Dr 314 0 0
At STD N 00C0FFFF
Po -3500 -100
$EndPAD
$PAD
Sh "PA11" O 471 471 0 0 0
Dr 314 0 0
At STD N 00C0FFFF
Po -3500 -1100
$EndPAD
$PAD
Sh "PA10" O 471 471 0 0 0
Dr 314 0 0
At STD N 00C0FFFF
Po -3500 -2100
$EndPAD
$PAD
Sh "PA9" O 471 471 0 0 0
Dr 314 0 0
At STD N 00C0FFFF
Po -3500 -3100
$EndPAD
$PAD
Sh "PA8" O 471 471 0 0 0
Dr 314 0 0
At STD N 00C0FFFF
Po -3500 -4100
$EndPAD
$PAD
Sh "PB15" O 471 471 0 0 0
Dr 314 0 0
At STD N 00C0FFFF
Po -3500 -5100
$EndPAD
$PAD
Sh "PB14" O 471 471 0 0 0
Dr 314 0 0
At STD N 00C0FFFF
Po -3500 -6100
$EndPAD
$PAD
Sh "PB13" O 471 471 0 0 0
Dr 314 0 0
At STD N 00C0FFFF
Po -3500 -7100
$EndPAD
$PAD
Sh "PB12" O 471 471 0 0 0
Dr 314 0 0
At STD N 00C0FFFF
Po -3500 -8100
$EndPAD
$EndMODULE BLACKPILL
$MODULE MAPLEMINI_BAITE
Po 0 0 0 15 00000000 00000000 ~~
Li MAPLEMINI_BAITE
Sc 00000000
Op 0 0 0
T0 0 0 0 0 0 0 N I 25 "ref**"
T1 0 0 0 0 0 0 N I 26 "val**"
DS -9800 -3600 9800 -3600 50 24
DS 9800 3600 -9800 3600 50 24
DS 10100 3300 10100 -3300 50 24
DA 9800 3300 9800 3600 900 50 24
DA 9800 -3300 9800 -3600 -900 50 24
DA -9800 -3300 -9800 -3600 900 50 24
DS -10100 -3300 -10100 3300 50 24
DA -9800 3300 -10100 3300 900 50 24
DS -10100 -1500 -10650 -1500 50 24
DS -10650 -1500 -10650 1500 50 24
DS -10650 1500 -10100 1500 50 24
$PAD
Sh "1" O 740 740 0 0 900
Dr 400 0 0
At STD N 00C0FFFF
Po -9500 3000
$EndPAD
$PAD
Sh "2" O 740 740 0 0 900
Dr 400 0 0
At STD N 00C0FFFF
Po -8500 3000
$EndPAD
$PAD
Sh "3" O 740 740 0 0 900
Dr 400 0 0
At STD N 00C0FFFF
Po -7500 3000
$EndPAD
$PAD
Sh "4" O 740 740 0 0 900
Dr 400 0 0
At STD N 00C0FFFF
Po -6500 3000
$EndPAD
$PAD
Sh "5" O 740 740 0 0 900
Dr 400 0 0
At STD N 00C0FFFF
Po -5500 3000
$EndPAD
$PAD
Sh "6" O 740 740 0 0 900
Dr 400 0 0
At STD N 00C0FFFF
Po -4500 3000
$EndPAD
$PAD
Sh "7" O 740 740 0 0 900
Dr 400 0 0
At STD N 00C0FFFF
Po -3500 3000
$EndPAD
$PAD
Sh "8" O 740 740 0 0 900
Dr 400 0 0
At STD N 00C0FFFF
Po -2500 3000
$EndPAD
$PAD
Sh "9" O 740 740 0 0 900
Dr 400 0 0
At STD N 00C0FFFF
Po -1500 3000
$EndPAD
$PAD
Sh "10" O 740 740 0 0 900
Dr 400 0 0
At STD N 00C0FFFF
Po -500 3000
$EndPAD
$PAD
Sh "11" O 740 740 0 0 900
Dr 400 0 0
At STD N 00C0FFFF
Po 500 3000
$EndPAD
$PAD
Sh "12" O 740 740 0 0 900
Dr 400 0 0
At STD N 00C0FFFF
Po 1500 3000
$EndPAD
$PAD
Sh "13" O 740 740 0 0 900
Dr 400 0 0
At STD N 00C0FFFF
Po 2500 3000
$EndPAD
$PAD
Sh "14" O 740 740 0 0 900
Dr 400 0 0
At STD N 00C0FFFF
Po 3500 3000
$EndPAD
$PAD
Sh "15" O 740 740 0 0 900
Dr 400 0 0
At STD N 00C0FFFF
Po 4500 3000
$EndPAD
$PAD
Sh "16" O 740 740 0 0 900
Dr 400 0 0
At STD N 00C0FFFF
Po 5500 3000
$EndPAD
$PAD
Sh "17" O 740 740 0 0 900
Dr 400 0 0
At STD N 00C0FFFF
Po 6500 3000
$EndPAD
$PAD
Sh "18" O 740 740 0 0 900
Dr 400 0 0
At STD N 00C0FFFF
Po 7500 3000
$EndPAD
$PAD
Sh "19" O 740 740 0 0 900
Dr 400 0 0
At STD N 00C0FFFF
Po 8500 3000
$EndPAD
$PAD
Sh "20" O 740 740 0 0 900
Dr 400 0 0
At STD N 00C0FFFF
Po 9500 3000
$EndPAD
$PAD
Sh "21" O 740 740 0 0 2700
Dr 400 0 0
At STD N 00C0FFFF
Po 9500 -3000
$EndPAD
$PAD
Sh "22" O 740 740 0 0 2700
Dr 400 0 0
At STD N 00C0FFFF
Po 8500 -3000
$EndPAD
$PAD
Sh "23" O 740 740 0 0 2700
Dr 400 0 0
At STD N 00C0FFFF
Po 7500 -3000
$EndPAD
$PAD
Sh "24" O 740 740 0 0 2700
Dr 400 0 0
At STD N 00C0FFFF
Po 6500 -3000
$EndPAD
$PAD
Sh "25" O 740 740 0 0 2700
Dr 400 0 0
At STD N 00C0FFFF
Po 5500 -3000
$EndPAD
$PAD
Sh "26" O 740 740 0 0 2700
Dr 400 0 0
At STD N 00C0FFFF
Po 4500 -3000
$EndPAD
$PAD
Sh "27" O 740 740 0 0 2700
Dr 400 0 0
At STD N 00C0FFFF
Po 3500 -3000
$EndPAD
$PAD
Sh "28" O 740 740 0 0 2700
Dr 400 0 0
At STD N 00C0FFFF
Po 2500 -3000
$EndPAD
$PAD
Sh "29" O 740 740 0 0 2700
Dr 400 0 0
At STD N 00C0FFFF
Po 1500 -3000
$EndPAD
$PAD
Sh "30" O 740 740 0 0 2700
Dr 400 0 0
At STD N 00C0FFFF
Po 500 -3000
$EndPAD
$PAD
Sh "31" O 740 740 0 0 2700
Dr 400 0 0
At STD N 00C0FFFF
Po -500 -3000
$EndPAD
$PAD
Sh "32" O 740 740 0 0 2700
Dr 400 0 0
At STD N 00C0FFFF
Po -1500 -3000
$EndPAD
$PAD
Sh "33" O 740 740 0 0 2700
Dr 400 0 0
At STD N 00C0FFFF
Po -2500 -3000
$EndPAD
$PAD
Sh "34" O 740 740 0 0 2700
Dr 400 0 0
At STD N 00C0FFFF
Po -3500 -3000
$EndPAD
$PAD
Sh "35" O 740 740 0 0 2700
Dr 400 0 0
At STD N 00C0FFFF
Po -4500 -3000
$EndPAD
$PAD
Sh "36" O 740 740 0 0 2700
Dr 400 0 0
At STD N 00C0FFFF
Po -5500 -3000
$EndPAD
$PAD
Sh "37" O 740 740 0 0 2700
Dr 400 0 0
At STD N 00C0FFFF
Po -6500 -3000
$EndPAD
$PAD
Sh "38" O 740 740 0 0 2700
Dr 400 0 0
At STD N 00C0FFFF
Po -7500 -3000
$EndPAD
$PAD
Sh "39" O 740 740 0 0 2700
Dr 400 0 0
At STD N 00C0FFFF
Po -8500 -3000
$EndPAD
$PAD
Sh "40" O 740 740 0 0 2700
Dr 400 0 0
At STD N 00C0FFFF
Po -9500 -3000
$EndPAD
$EndMODULE MAPLEMINI_BAITE
$EndLIBRARY
